<?xml version="1.0" encoding="UTF-8" standalone="no"?>
<!DOCTYPE svg PUBLIC "-//W3C//DTD SVG 1.1//EN" "http://www.w3.org/Graphics/SVG/1.1/DTD/svg11.dtd">
<svg width="100%" height="100%" viewBox="0 0 256 291" version="1.1" xmlns="http://www.w3.org/2000/svg" xmlns:xlink="http://www.w3.org/1999/xlink" xml:space="preserve" xmlns:serif="http://www.serif.com/" style="fill-rule:evenodd;clip-rule:evenodd;stroke-linecap:round;stroke-linejoin:round;stroke-miterlimit:1.5;">
    <g id="Pecho---Espalda" serif:id="Pecho / Espalda" transform="matrix(1.04565,0,0,3.14691,-225.622,-1044.19)">
        <g id="Pecho" transform="matrix(0.711458,0,0,0.236659,-4322.75,-154.148)">
            <path d="M6425.97,2146.78L6425.86,2140.86L6427,2132.8L6430.22,2127.73L6434.79,2123.64L6446.58,2117.74L6452.36,2116.12L6463.13,2114.14L6467.7,2107.88L6469.27,2098.23L6473.06,2103.9L6482.43,2107.31L6488.95,2104.05L6494.22,2097.33L6493.71,2105.57L6497.51,2111.92L6504.46,2115.57L6514.06,2116.92L6525.53,2121.83L6531.29,2125.86L6536.22,2134.54L6536.87,2143.15L6536.33,2146.68L6532.33,2145.87L6525.21,2144.47L6520.08,2142.7L6519.13,2144.98L6519.91,2150.1L6525.07,2163.11L6525.72,2165.56L6520.45,2176.91L6517.09,2187.98L6516.09,2198.23L6517.36,2216.65L6506.49,2228.05L6500.31,2232.35L6501.03,2215.29L6501.03,2194.78L6498.4,2175.18L6491.5,2158.12L6486.1,2154.39L6481.16,2147.87L6477.96,2153.12L6472.9,2157.67L6468.53,2162.76L6466.55,2169.01L6463.1,2180.91L6462.11,2211.03L6462.65,2232.89L6457.11,2229.08L6451.22,2223.09L6446.58,2217.1L6446.58,2208.94L6447.04,2198.96L6445.86,2189.07L6441.96,2177.09L6437.51,2165.84L6440.69,2155.4L6444.06,2142.46L6435.48,2145.31L6425.97,2146.78Z" style="fill:rgb(3,161,255);"/>
        </g>
        <g transform="matrix(0.711458,0,0,0.236659,-4322.75,-154.148)">
            <path d="M6612.72,2157.32L6619.16,2154L6627.08,2151.42L6626.72,2157.32L6627.08,2164.32L6627.45,2171.13L6628.19,2177.76L6629.29,2183.47L6631.76,2193.63L6631.19,2198.7L6633.19,2206.07L6637.43,2209.3L6639.61,2210.73L6644.21,2211.83L6649.37,2214.6L6649.55,2219.94L6650.84,2227.12L6651.58,2229.88L6656.55,2237.62L6661.71,2242.04L6662.82,2245.35L6664.47,2241.49L6669.26,2238.17L6673.13,2231.36L6675.52,2226.57L6675.52,2219.02L6677.18,2213.49L6681.05,2212.57L6688.41,2209.99L6692.84,2206.49L6694.86,2200.05L6694.31,2193.6L6696.7,2183.84L6697.44,2178.13L6697.62,2171.87L6699.1,2162.66L6699.47,2151.98L6705.91,2153.45L6711.81,2156.58L6713.46,2158.24L6714.57,2152.53L6715.31,2145.9L6715.12,2140.74L6714.57,2135.22L6710.52,2128.4L6706.65,2124.53L6701.68,2121.59L6698.36,2120.11L6691.55,2119.01L6684.55,2117.17L6677.73,2113.3L6671.1,2107.77L6669.26,2103.7L6666.68,2096.51L6666.1,2084.78L6660.24,2084.91L6660.6,2090.99L6660.05,2095.59L6658.76,2100.01L6657.29,2104.43L6653.97,2108.12L6649,2112.72L6645.87,2114.56L6639.24,2118.62L6635.93,2119.54L6628.56,2120.09L6624.51,2122.67L6621.19,2124.14L6617.69,2125.98L6614.93,2129.11L6611.61,2132.24L6610.51,2137.03L6609.77,2146.43L6611.61,2150.85L6612.72,2157.32Z" style="fill:rgb(3,161,255);"/>
        </g>
        <g id="Regiones-a-tratar" serif:id="Regiones a tratar" transform="matrix(1,0,0,1,4.52293,-0.140763)">
            <g id="Vista-Anterior" serif:id="Vista Anterior" transform="matrix(0.125469,0,0,0.0375929,209.155,305.342)">
                <g transform="matrix(0.875931,0,0,1,3.39681,0)">
                    <g>
                        <path d="M790.957,2460.81C790.957,2460.81 825.34,2428.24 851.579,2463.53" style="fill:none;stroke:rgb(0,72,114);stroke-width:17.15px;"/>
                        <path d="M790.957,2460.81C790.957,2460.81 816.292,2599.25 851.579,2463.53" style="fill:none;stroke:rgb(0,72,114);stroke-width:17.15px;"/>
                        <path d="M746.331,2453.21C734.193,2351.53 725.832,2285.12 857.763,1967.7C872.806,1931.5 873.493,1846.1 873.69,1805.88C874.773,1864.17 870.791,1923.05 883.843,1979.02C903.245,2062.22 914.878,2159.8 920.241,2265.25" style="fill:none;stroke:rgb(0,72,114);stroke-width:17.15px;"/>
                        <path d="M674.359,1042.15C674.359,1042.15 714.825,1052.38 757.131,988.227C773.121,963.981 770.299,896.677 770.299,896.677C770.299,896.677 794.349,818.9 767.01,771.59C742.792,729.68 674.359,730.652 674.359,730.652" style="fill:none;stroke:rgb(0,72,114);stroke-width:17.15px;"/>
                        <path d="M1204.28,1905.08C1227.7,1945.81 1250.58,1966.87 1274,1958.59C1277.34,1965.01 1282.19,1971.81 1291.3,1979.67C1293.2,2001.16 1301.83,2013.68 1321.02,2012.1C1342.27,1968.68 1254.75,1883.47 1236.71,1861.31L1203.82,1768.78C1203,1654.34 1165.82,1546.07 1088.61,1444.6C1081.8,1385.23 1062.28,1324.88 1036.73,1264.07" style="fill:none;stroke:rgb(0,72,114);stroke-width:17.15px;"/>
                        <path d="M1088.18,1580.81C1079.95,1530.62 1080.08,1485.21 1088.61,1444.6" style="fill:none;stroke:rgb(0,72,114);stroke-width:17.15px;"/>
                        <path d="M1022.84,1529.27C1094.36,1547.07 1144.62,1724 1236.31,1858.95" style="fill:none;stroke:rgb(0,72,114);stroke-width:17.15px;"/>
                        <path d="M963.688,1413.26C947.827,1445.31 934.35,1477.53 920.26,1512.94C886.917,1596.73 902.104,1701.73 913.236,1805.07" style="fill:none;stroke:rgb(0,72,114);stroke-width:17.15px;"/>
                        <path d="M1173.54,1750.33C1173.08,1808 1182.13,1860.54 1204.52,1905.9" style="fill:none;stroke:rgb(0,72,114);stroke-width:17.15px;"/>
                        <path d="M760.893,983.886C760.893,983.886 744.944,1041.48 780.076,1076.61C806.935,1103.47 872.51,1104.28 872.51,1104.28C807.354,1105.34 741.187,1131.65 674.359,1174.51" style="fill:none;stroke:rgb(0,72,114);stroke-width:17.15px;"/>
                        <path d="M674.359,1299.25C723.161,1395.68 803.432,1396.99 925.81,1271.03" style="fill:none;stroke:rgb(0,72,114);stroke-width:17.15px;"/>
                        <path d="M727.218,1145.62C819.568,1231.92 921.247,1284.01 1033.66,1296.74C1049.57,1196.29 995.398,1132.15 872.51,1103.61" style="fill:none;stroke:rgb(0,72,114);stroke-width:17.15px;"/>
                        <path d="M674.359,1388.8C765.418,1374.66 815.346,1637.15 743.072,1850.76C729.78,1890.05 705.6,1866.39 674.359,1873.55" style="fill:none;stroke:rgb(0,72,114);stroke-width:17.15px;"/>
                        <path d="M674.359,1664.89C674.359,1664.89 725.61,1672.13 776.495,1669.08" style="fill:none;stroke:rgb(0,72,114);stroke-width:17.15px;"/>
                        <path d="M674.359,1574.56C674.359,1574.56 753.741,1591.1 773.434,1584.74" style="fill:none;stroke:rgb(0,72,114);stroke-width:17.15px;"/>
                        <path d="M768.291,1523.29C735.976,1510.06 710.501,1486.7 674.359,1485.21" style="fill:none;stroke:rgb(0,72,114);stroke-width:17.15px;"/>
                        <path d="M918.828,1277.69C941.703,1373.45 977.835,1455.95 1022.35,1530.08C1020.85,1548.45 1026.6,1565.86 1038.63,1582.42C1048.45,1652.37 1070.8,1715.07 1108.01,1769.17C1133.03,1802.17 1142.59,1852.33 1143.1,1889.66C1140.25,1954.65 1168.92,2068.03 1184.82,2079.66C1187.91,2112.48 1349.33,2187.71 1274.54,1962.38" style="fill:none;stroke:rgb(0,72,114);stroke-width:17.15px;"/>
                        <path d="M905.721,1733.62C905.721,1733.62 790.871,1874.12 794.083,1825.94C809.648,1592.46 800.824,1437.2 735.043,1363.28" style="fill:none;stroke:rgb(0,72,114);stroke-width:17.15px;"/>
                        <path d="M886.865,1758.08C942.167,1803.3 934.976,2015.62 918.525,2296.7C916.411,2332.82 905.015,2370.62 901.353,2408.28C898.154,2441.2 901.793,2473.74 898.283,2507.5" style="fill:none;stroke:rgb(0,72,114);stroke-width:17.15px;"/>
                        <path d="M674.307,1928.22C677.68,1928.13 682.681,1928.35 682.675,1928.51C674.861,2122.98 729.204,2285.86 745.453,2451.46" style="fill:none;stroke:rgb(0,72,114);stroke-width:17.15px;"/>
                        <path d="M892.575,3152.15C892.575,3152.15 892.575,3152.57 856.17,3153.42C819.764,3154.27 812.145,3142.84 812.145,3142.84C783.179,3133.34 762.199,3119.57 767.131,3091.99C775.48,3070.01 779.577,3048.03 771.928,3026.04C793.019,2972.53 796.042,2906.11 794.711,2836.58C790.689,2828.62 786.5,2808.01 779.842,2781.5C771.017,2746.36 764.571,2699.88 771.928,2654.64L777.082,2580.87C766.495,2562.37 759.332,2540.44 755.14,2515.55C750.326,2496.38 747.163,2475.56 745.547,2453.19" style="fill:none;stroke:rgb(0,72,114);stroke-width:17.15px;"/>
                        <path d="M892.575,3152.15C892.575,3150.46 949.3,3151.73 907.815,3117.01C866.33,3082.3 867.176,3070.03 867.176,3070.03L869.716,3045.9L861.25,3014.99C869.04,2946.58 890.387,2884.73 902.471,2826.36C911.376,2783.35 926.852,2718.75 922.399,2676C915.43,2609.1 905.841,2576.72 898.925,2506.83" style="fill:none;stroke:rgb(0,72,114);stroke-width:17.15px;"/>
                        <path d="M745.416,2309.76C745.416,2309.76 741.477,2361 754.865,2396.6C761.052,2413.05 786.844,2414.21 788.941,2435.5C791.512,2461.61 795.072,2511.98 788.941,2532.22C772.688,2538.75 758.444,2501.11 745.416,2436.71" style="fill:none;stroke:rgb(0,72,114);stroke-width:17.15px;"/>
                        <path d="M779.268,2581.6C803.483,2700.93 807.445,2800 796.195,2883.86" style="fill:none;stroke:rgb(0,72,114);stroke-width:17.15px;"/>
                        <path d="M846.461,1799.73C845.096,1842.83 849.901,1887.7 835.665,1928.23C772.136,2109.13 728.046,2255.92 738.426,2364.5" style="fill:none;stroke:rgb(0,72,114);stroke-width:17.15px;"/>
                        <path d="M905.007,2378.67C874.656,2402.95 854.35,2430.57 853.019,2464.51C848.989,2480.03 844.959,2496.55 840.929,2515.29C838.706,2535.02 846.778,2535.87 863.9,2520.13C894.714,2514.55 903.613,2489.04 898.962,2451.22" style="fill:none;stroke:rgb(0,72,114);stroke-width:17.15px;"/>
                        <path d="M914.679,2628.76C908.559,2594.08 848.814,2517.94 845.765,2580.39C841.041,2677.15 833.916,3056.11 801.031,3053.12" style="fill:none;stroke:rgb(0,72,114);stroke-width:17.15px;"/>
                    </g>
                    <g transform="matrix(-1,0,0,1,1351.71,0)">
                        <path d="M790.957,2460.81C790.957,2460.81 825.34,2428.24 851.579,2463.53" style="fill:none;stroke:rgb(0,72,114);stroke-width:17.15px;"/>
                        <path d="M790.957,2460.81C790.957,2460.81 816.292,2599.25 851.579,2463.53" style="fill:none;stroke:rgb(0,72,114);stroke-width:17.15px;"/>
                        <path d="M746.331,2453.21C734.193,2351.53 725.832,2285.12 857.763,1967.7C872.806,1931.5 873.493,1846.1 873.69,1805.88C874.773,1864.17 870.791,1923.05 883.843,1979.02C903.245,2062.22 914.878,2159.8 920.241,2265.25" style="fill:none;stroke:rgb(0,72,114);stroke-width:17.15px;"/>
                        <path d="M674.359,1042.15C674.359,1042.15 714.825,1052.38 757.131,988.227C773.121,963.981 770.299,896.677 770.299,896.677C770.299,896.677 794.349,818.9 767.01,771.59C742.792,729.68 674.359,730.652 674.359,730.652" style="fill:none;stroke:rgb(0,72,114);stroke-width:17.15px;"/>
                        <path d="M1204.28,1905.08C1227.7,1945.81 1250.58,1966.87 1274,1958.59C1277.34,1965.01 1282.19,1971.81 1291.3,1979.67C1293.2,2001.16 1301.83,2013.68 1321.02,2012.1C1342.27,1968.68 1254.75,1883.47 1236.71,1861.31L1203.82,1768.78C1203,1654.34 1165.82,1546.07 1088.61,1444.6C1081.8,1385.23 1062.28,1324.88 1036.73,1264.07" style="fill:none;stroke:rgb(0,72,114);stroke-width:17.15px;"/>
                        <path d="M1088.18,1580.81C1079.95,1530.62 1080.08,1485.21 1088.61,1444.6" style="fill:none;stroke:rgb(0,72,114);stroke-width:17.15px;"/>
                        <path d="M1022.84,1529.27C1094.36,1547.07 1144.62,1724 1236.31,1858.95" style="fill:none;stroke:rgb(0,72,114);stroke-width:17.15px;"/>
                        <path d="M963.688,1413.26C947.827,1445.31 934.35,1477.53 920.26,1512.94C886.917,1596.73 902.104,1701.73 913.236,1805.07" style="fill:none;stroke:rgb(0,72,114);stroke-width:17.15px;"/>
                        <path d="M1173.54,1750.33C1173.08,1808 1182.13,1860.54 1204.52,1905.9" style="fill:none;stroke:rgb(0,72,114);stroke-width:17.15px;"/>
                        <path d="M760.893,983.886C760.893,983.886 744.944,1041.48 780.076,1076.61C806.935,1103.47 872.51,1104.28 872.51,1104.28C807.354,1105.34 741.187,1131.65 674.359,1174.51" style="fill:none;stroke:rgb(0,72,114);stroke-width:17.15px;"/>
                        <path d="M674.359,1299.25C723.161,1395.68 803.432,1396.99 925.81,1271.03" style="fill:none;stroke:rgb(0,72,114);stroke-width:17.15px;"/>
                        <path d="M727.218,1145.62C819.568,1231.92 921.247,1284.01 1033.66,1296.74C1049.57,1196.29 995.398,1132.15 872.51,1103.61" style="fill:none;stroke:rgb(0,72,114);stroke-width:17.15px;"/>
                        <path d="M674.359,1388.8C765.418,1374.66 815.346,1637.15 743.072,1850.76C729.78,1890.05 705.6,1866.39 674.359,1873.55" style="fill:none;stroke:rgb(0,72,114);stroke-width:17.15px;"/>
                        <path d="M674.359,1664.89C674.359,1664.89 725.61,1672.13 776.495,1669.08" style="fill:none;stroke:rgb(0,72,114);stroke-width:17.15px;"/>
                        <path d="M674.359,1574.56C674.359,1574.56 753.741,1591.1 773.434,1584.74" style="fill:none;stroke:rgb(0,72,114);stroke-width:17.15px;"/>
                        <path d="M768.291,1523.29C735.976,1510.06 710.501,1486.7 674.359,1485.21" style="fill:none;stroke:rgb(0,72,114);stroke-width:17.15px;"/>
                        <path d="M918.828,1277.69C941.703,1373.45 977.835,1455.95 1022.35,1530.08C1020.85,1548.45 1026.6,1565.86 1038.63,1582.42C1048.45,1652.37 1070.8,1715.07 1108.01,1769.17C1133.03,1802.17 1142.59,1852.33 1143.1,1889.66C1140.25,1954.65 1168.92,2068.03 1184.82,2079.66C1187.91,2112.48 1349.33,2187.71 1274.54,1962.38" style="fill:none;stroke:rgb(0,72,114);stroke-width:17.15px;"/>
                        <path d="M905.721,1733.62C905.721,1733.62 790.871,1874.12 794.083,1825.94C809.648,1592.46 800.824,1437.2 735.043,1363.28" style="fill:none;stroke:rgb(0,72,114);stroke-width:17.15px;"/>
                        <path d="M886.865,1758.08C942.167,1803.3 934.976,2015.62 918.525,2296.7C916.411,2332.82 905.015,2370.62 901.353,2408.28C898.154,2441.2 901.793,2473.74 898.283,2507.5" style="fill:none;stroke:rgb(0,72,114);stroke-width:17.15px;"/>
                        <path d="M674.307,1928.22C677.68,1928.13 682.681,1928.35 682.675,1928.51C674.861,2122.98 729.204,2285.86 745.453,2451.46" style="fill:none;stroke:rgb(0,72,114);stroke-width:17.15px;"/>
                        <path d="M892.575,3152.15C892.575,3152.15 892.575,3152.57 856.17,3153.42C819.764,3154.27 812.145,3142.84 812.145,3142.84C783.179,3133.34 762.199,3119.57 767.131,3091.99C775.48,3070.01 779.577,3048.03 771.928,3026.04C793.019,2972.53 796.042,2906.11 794.711,2836.58C790.689,2828.62 786.5,2808.01 779.842,2781.5C771.017,2746.36 764.571,2699.88 771.928,2654.64L777.082,2580.87C766.495,2562.37 759.332,2540.44 755.14,2515.55C750.326,2496.38 747.163,2475.56 745.547,2453.19" style="fill:none;stroke:rgb(0,72,114);stroke-width:17.15px;"/>
                        <path d="M892.575,3152.15C892.575,3150.46 949.3,3151.73 907.815,3117.01C866.33,3082.3 867.176,3070.03 867.176,3070.03L869.716,3045.9L861.25,3014.99C869.04,2946.58 890.387,2884.73 902.471,2826.36C911.376,2783.35 926.852,2718.75 922.399,2676C915.43,2609.1 905.841,2576.72 898.925,2506.83" style="fill:none;stroke:rgb(0,72,114);stroke-width:17.15px;"/>
                        <path d="M745.416,2309.76C745.416,2309.76 741.477,2361 754.865,2396.6C761.052,2413.05 786.844,2414.21 788.941,2435.5C791.512,2461.61 795.072,2511.98 788.941,2532.22C772.688,2538.75 758.444,2501.11 745.416,2436.71" style="fill:none;stroke:rgb(0,72,114);stroke-width:17.15px;"/>
                        <path d="M779.268,2581.6C803.483,2700.93 807.445,2800 796.195,2883.86" style="fill:none;stroke:rgb(0,72,114);stroke-width:17.15px;"/>
                        <path d="M846.461,1799.73C845.096,1842.83 849.901,1887.7 835.665,1928.23C772.136,2109.13 728.046,2255.92 738.426,2364.5" style="fill:none;stroke:rgb(0,72,114);stroke-width:17.15px;"/>
                        <path d="M905.007,2378.67C874.656,2402.95 854.35,2430.57 853.019,2464.51C848.989,2480.03 844.959,2496.55 840.929,2515.29C838.706,2535.02 846.778,2535.87 863.9,2520.13C894.714,2514.55 903.613,2489.04 898.962,2451.22" style="fill:none;stroke:rgb(0,72,114);stroke-width:17.15px;"/>
                        <path d="M914.679,2628.76C908.559,2594.08 848.814,2517.94 845.765,2580.39C841.041,2677.15 833.916,3056.11 801.031,3053.12" style="fill:none;stroke:rgb(0,72,114);stroke-width:17.15px;"/>
                    </g>
                </g>
                <path d="M595.937,1389.16L595.003,1875.07" style="fill:none;stroke:rgb(0,72,114);stroke-width:16.01px;"/>
            </g>
            <g id="Vista-Posterior" serif:id="Vista Posterior" transform="matrix(0.12041,0,0,0.0375929,192,305.342)">
                <g>
                    <path d="M1836.89,1473.2C1900.36,1389.81 1948.5,1290.91 1977.83,1189.26C1986.65,1158.67 2023.57,1146.6 2051.87,1133.56C1904.6,1118.2 1842.55,1021.3 1854.7,907.14C1881.66,920.578 1886.27,971.268 1882.69,1035.62" style="fill:none;stroke:rgb(0,72,114);stroke-width:16.37px;"/>
                    <path d="M1896.68,1058.51C1898.87,1001.65 1906.18,956.731 1918.55,923.613C1950.21,797.337 1920.98,731 1834.68,728.272" style="fill:none;stroke:rgb(0,72,114);stroke-width:16.37px;"/>
                    <path d="M1964.1,1235.65C1986.71,1268.81 2007.01,1312.67 2050.88,1326.26C2095.91,1340.22 2122.35,1353.99 2133.28,1366.67C2161.32,1266.27 2154.94,1179.99 2050.6,1133.89" style="fill:none;stroke:rgb(0,72,114);stroke-width:16.37px;"/>
                    <path d="M1923.39,1333.3C1977.95,1353.35 2020.07,1350.31 2050.88,1326.26C2049.06,1527.4 2016.38,1654.55 1970.46,1699.65C1946.48,1637.77 1927.55,1578.57 1908.32,1525.28C1897.48,1495.25 1872.29,1475 1850.89,1455.42" style="fill:none;stroke:rgb(0,72,114);stroke-width:16.37px;"/>
                    <path d="M2135.2,1366.07C2145.79,1404.67 2149.45,1443.28 2145.85,1481.89C2148.1,1529.93 2152.03,1559.44 2157.83,1568.43C2191.96,1646.63 2178.53,1754.07 2159.16,1878.63C2161.38,1895.68 2163.6,1925.93 2165.82,1946.53C2162.2,1981.94 2165.89,2028.29 2176.47,2084.99C2119.01,2251.36 2013.79,2157.66 2120.55,2074.34C2089.68,2053.62 2084.61,2017.46 2101.91,1966.5C2094.81,1918.51 2089.05,1887.13 2081.94,1842.69C2058.85,1784.17 2047.7,1707 2053.02,1637.83C2054.82,1614.41 2051.44,1608.13 2057.72,1596.03C2048.32,1575.15 2052.1,1551.74 2049.14,1534.98C2046.73,1521.31 2039.65,1512.35 2039.96,1503.3" style="fill:none;stroke:rgb(0,72,114);stroke-width:16.37px;"/>
                    <path d="M2057.72,1596.03C2057.72,1596.03 2085.51,1621.06 2078.02,1616.49C2073.74,1613.88 2103.32,1262.31 2145.08,1596.82L2146.68,1657.38C2115.88,1721.17 2126.91,1820.35 2151.47,1930.98C2134.12,1848.12 2126.36,1794.03 2124.25,1719.06C2123.48,1691.72 2060.08,1647.35 2054.32,1623.71" style="fill:none;stroke:rgb(0,72,114);stroke-width:16.37px;"/>
                    <path d="M1836.5,1961.6L1837.43,1926.63C1842.3,1874.93 1875.33,1888.96 1905.6,1812.36C1916.14,1785.7 1907.8,1715.54 1932.79,1711C1984.39,1701.64 2035.53,1677.64 2022.61,1588.98" style="fill:none;stroke:rgb(0,72,114);stroke-width:16.37px;"/>
                    <path d="M2103.25,1966.04C2074.91,1993.09 2062.79,2038.83 2080.61,2119.14" style="fill:none;stroke:rgb(0,72,114);stroke-width:16.37px;"/>
                    <path d="M2102.54,2089.68C2100.82,2078.36 2099.32,2067.05 2105.45,2060.74" style="fill:none;stroke:rgb(0,72,114);stroke-width:16.37px;"/>
                    <path d="M2021.67,1650.27C2029.25,1668.61 2032.36,1698.86 2028.69,1747.16C2026.34,1783.68 2031.52,1810.79 2044.14,1828.6L2044.14,1918.46C2056.84,1976.3 2059.52,2029.12 2049.76,2075.72C2044.96,2214.48 2026.47,2321.3 1999.21,2407.63L1999.21,2477.84C2000.13,2496.48 2009.77,2560.95 2026.08,2612.21C2045.08,2671.9 2037.65,2736.75 2028.36,2748.23C2028.36,2748.23 1967.45,2934.28 1959.89,3012.28C1966.14,3029.65 1967.86,3045.51 1965.51,3060.02C1978.09,3093.54 1993.43,3118.42 2016.06,3120.39C2030.49,3123.22 2039.89,3145.08 2030.01,3147.61C2010.82,3152.53 1938.98,3151.88 1900.92,3149.88C1879.72,3150.29 1867.7,3140.81 1883.81,3101.05C1890.99,3082.95 1898.62,2919.48 1898.62,2919.48C1882.82,2909.49 1876.41,2839.46 1878.09,2769.73C1844.04,2741.54 1864.34,2687.84 1884.04,2592.64L1885.95,2518.27C1851.19,2477.62 1839.02,2436.39 1860.15,2394.31C1855.05,2346.51 1845.21,2298.32 1850.31,2250.52C1857.51,2182.98 1857.91,2097.71 1853.17,2001.03" style="fill:none;stroke:rgb(0,72,114);stroke-width:16.37px;"/>
                    <path d="M1878.44,2770.44C1878.44,2770.44 1895.63,2790.63 1902,2789.92" style="fill:none;stroke:rgb(0,72,114);stroke-width:16.37px;"/>
                    <path d="M1835.97,1962.61C1834.35,1985.12 1871.88,2039.9 1946.69,2038.4C2054.2,2036.25 2024.3,2338.54 2006.02,2382.62" style="fill:none;stroke:rgb(0,72,114);stroke-width:16.37px;"/>
                    <path d="M1940.44,2038.07C1936.14,2253.69 1915.38,2444.68 1997.92,2487.15" style="fill:none;stroke:rgb(0,72,114);stroke-width:16.37px;"/>
                    <path d="M1940.44,2038.31C1940.76,2157.72 1927.65,2259.69 1936.5,2341.3C1903.52,2381 1885.19,2445.3 1885.41,2519.94" style="fill:none;stroke:rgb(0,72,114);stroke-width:16.37px;"/>
                    <path d="M1888.26,2027.6L1885.41,2519.94" style="fill:none;stroke:rgb(0,72,114);stroke-width:16.37px;"/>
                    <path d="M1891.05,3075.33L1902.1,2934C1893.55,2882.62 1893.59,2834.36 1902.1,2789.19C1921.68,2779.49 1940.29,2764.95 1956.77,2739.75C1969.15,2755.12 1973.44,2760.01 1981.78,2763.6C1989.47,2766.91 2006.79,2761.27 2006.79,2761.27C1997.33,2794.59 1996.94,2832.87 1979.58,2865.91C1958.13,2906.72 1946.47,2944.28 1936.13,2977.24C1924.62,3013.94 1924.21,3051.06 1931.76,3088.13" style="fill:none;stroke:rgb(0,72,114);stroke-width:16.37px;"/>
                    <path d="M2006.79,2761.27C2006.79,2761.27 2019.27,2757.94 2034.61,2725.31" style="fill:none;stroke:rgb(0,72,114);stroke-width:16.37px;"/>
                    <path d="M1900.36,2421.28C1915.81,2428.99 1935.63,2445.37 1940.48,2473.62C1950.95,2534.6 1971.69,2625.11 1957.44,2739.26" style="fill:none;stroke:rgb(0,72,114);stroke-width:16.37px;"/>
                    <path d="M1957.23,2438.14C1945.82,2440.34 1941.62,2452.04 1941.07,2475.95" style="fill:none;stroke:rgb(0,72,114);stroke-width:16.37px;"/>
                </g>
                <g transform="matrix(-1,0,0,1,3672.97,0)">
                    <path d="M1836.89,1473.2C1900.36,1389.81 1948.5,1290.91 1977.83,1189.26C1986.65,1158.67 2023.57,1146.6 2051.87,1133.56C1904.6,1118.2 1842.55,1021.3 1854.7,907.14C1881.66,920.578 1886.27,971.268 1882.69,1035.62" style="fill:none;stroke:rgb(0,72,114);stroke-width:16.37px;"/>
                    <path d="M1896.68,1058.51C1898.87,1001.65 1906.18,956.731 1918.55,923.613C1950.21,797.337 1920.32,728.165 1839.11,728.272" style="fill:none;stroke:rgb(0,72,114);stroke-width:16.37px;"/>
                    <path d="M1964.1,1235.65C1986.71,1268.81 2007.01,1312.67 2050.88,1326.26C2095.91,1340.22 2122.35,1353.99 2133.28,1366.67C2161.32,1266.27 2154.94,1179.99 2050.6,1133.89" style="fill:none;stroke:rgb(0,72,114);stroke-width:16.37px;"/>
                    <path d="M1923.39,1333.3C1977.95,1353.35 2020.07,1350.31 2050.88,1326.26C2049.06,1527.4 2016.38,1654.55 1970.46,1699.65C1946.48,1637.77 1927.55,1578.57 1908.32,1525.28C1897.48,1495.25 1872.29,1475 1850.89,1455.42" style="fill:none;stroke:rgb(0,72,114);stroke-width:16.37px;"/>
                    <path d="M2135.2,1366.07C2145.79,1404.67 2149.45,1443.28 2145.85,1481.89C2148.1,1529.93 2152.03,1559.44 2157.83,1568.43C2191.96,1646.63 2178.53,1754.07 2159.16,1878.63C2161.38,1895.68 2163.6,1925.93 2165.82,1946.53C2162.2,1981.94 2165.89,2028.29 2176.47,2084.99C2119.01,2251.36 2013.79,2157.66 2120.55,2074.34C2089.68,2053.62 2084.61,2017.46 2101.91,1966.5C2094.81,1918.51 2089.05,1887.13 2081.94,1842.69C2058.85,1784.17 2047.7,1707 2053.02,1637.83C2054.82,1614.41 2051.44,1608.13 2057.72,1596.03C2048.32,1575.15 2052.1,1551.74 2049.14,1534.98C2046.73,1521.31 2039.65,1512.35 2039.96,1503.3" style="fill:none;stroke:rgb(0,72,114);stroke-width:16.37px;"/>
                    <path d="M2057.72,1596.03C2057.72,1596.03 2085.51,1621.06 2078.02,1616.49C2073.74,1613.88 2103.32,1262.31 2145.08,1596.82L2146.68,1657.38C2115.88,1721.17 2126.91,1820.35 2151.47,1930.98C2134.12,1848.12 2126.36,1794.03 2124.25,1719.06C2123.48,1691.72 2060.08,1647.35 2054.32,1623.71" style="fill:none;stroke:rgb(0,72,114);stroke-width:16.37px;"/>
                    <path d="M1836.5,1961.6L1837.43,1926.63C1842.3,1874.93 1875.33,1888.96 1905.6,1812.36C1916.14,1785.7 1907.8,1715.54 1932.79,1711C1984.39,1701.64 2035.53,1677.64 2022.61,1588.98" style="fill:none;stroke:rgb(0,72,114);stroke-width:16.37px;"/>
                    <path d="M2103.25,1966.04C2074.91,1993.09 2062.79,2038.83 2080.61,2119.14" style="fill:none;stroke:rgb(0,72,114);stroke-width:16.37px;"/>
                    <path d="M2102.54,2089.68C2100.82,2078.36 2099.32,2067.05 2105.45,2060.74" style="fill:none;stroke:rgb(0,72,114);stroke-width:16.37px;"/>
                    <path d="M2021.67,1650.27C2029.25,1668.61 2032.36,1698.86 2028.69,1747.16C2026.34,1783.68 2031.52,1810.79 2044.14,1828.6L2044.14,1918.46C2056.84,1976.3 2059.52,2029.12 2049.76,2075.72C2044.96,2214.48 2026.47,2321.3 1999.21,2407.63L1999.21,2477.84C2000.13,2496.48 2009.77,2560.95 2026.08,2612.21C2045.08,2671.9 2037.65,2736.75 2028.36,2748.23C2028.36,2748.23 1967.45,2934.28 1959.89,3012.28C1966.14,3029.65 1967.86,3045.51 1965.51,3060.02C1978.09,3093.54 1993.43,3118.42 2016.06,3120.39C2030.49,3123.22 2039.89,3145.08 2030.01,3147.61C2010.82,3152.53 1938.98,3151.88 1900.92,3149.88C1879.72,3150.29 1867.7,3140.81 1883.81,3101.05C1890.99,3082.95 1898.62,2917.92 1898.62,2917.92C1882.82,2907.93 1876.41,2839.46 1878.09,2769.73C1844.04,2741.54 1864.34,2687.84 1884.04,2592.64L1885.95,2518.27C1851.19,2477.62 1839.02,2436.39 1860.15,2394.31C1855.05,2346.51 1845.21,2298.32 1850.31,2250.52C1857.51,2182.98 1857.91,2097.71 1853.17,2001.03" style="fill:none;stroke:rgb(0,72,114);stroke-width:16.37px;"/>
                    <path d="M1878.44,2770.44C1878.44,2770.44 1895.63,2790.63 1902,2789.92" style="fill:none;stroke:rgb(0,72,114);stroke-width:16.37px;"/>
                    <path d="M1835.97,1962.61C1834.35,1985.12 1871.88,2039.9 1946.69,2038.4C2054.2,2036.25 2025.03,2338.28 2006.76,2382.36" style="fill:none;stroke:rgb(0,72,114);stroke-width:16.37px;"/>
                    <path d="M1940.44,2038.07C1936.14,2253.69 1915.38,2444.68 1997.92,2487.15" style="fill:none;stroke:rgb(0,72,114);stroke-width:16.37px;"/>
                    <path d="M1940.44,2038.31C1940.76,2157.72 1927.65,2258.12 1936.5,2339.73C1903.52,2379.43 1885.19,2445.3 1885.41,2519.94" style="fill:none;stroke:rgb(0,72,114);stroke-width:16.37px;"/>
                    <path d="M1888.26,2027.6L1885.41,2519.94" style="fill:none;stroke:rgb(0,72,114);stroke-width:16.37px;"/>
                    <path d="M1891.05,3075.33L1902.1,2934C1893.55,2882.62 1893.59,2834.36 1902.1,2789.19C1921.68,2779.49 1940.29,2764.95 1956.77,2739.75C1969.15,2755.12 1973.44,2760.01 1981.78,2763.6C1989.47,2766.91 2006.79,2761.27 2006.79,2761.27C1997.33,2794.59 1996.94,2832.87 1979.58,2865.91C1958.13,2906.72 1946.47,2944.28 1936.13,2977.24C1924.62,3013.94 1924.21,3051.06 1931.76,3088.13" style="fill:none;stroke:rgb(0,72,114);stroke-width:16.37px;"/>
                    <path d="M2006.79,2761.27C2006.79,2761.27 2019.27,2757.94 2034.61,2725.31" style="fill:none;stroke:rgb(0,72,114);stroke-width:16.37px;"/>
                    <path d="M1900.36,2421.28C1915.81,2428.99 1935.63,2445.37 1940.48,2473.62C1950.95,2534.6 1971.69,2625.11 1957.44,2739.26" style="fill:none;stroke:rgb(0,72,114);stroke-width:16.37px;"/>
                    <path d="M1956.74,2438.14C1945.33,2440.34 1941.62,2452.04 1941.07,2475.95" style="fill:none;stroke:rgb(0,72,114);stroke-width:16.37px;"/>
                </g>
            </g>
        </g>
    </g>
</svg>
